{
    "data-provider:input": {
      "filter": [{
        "property": "status",
        "filtervalue": "Connected"
        }
      ],
      "pagination": {
        "size": 10,
        "page": 1
       }
    }
  }